{
    "QCD1000": {
        "ds": "/QCD_HT1000to1500_TuneCUETP8M1_13TeV-madgraphMLM-pythia8/RunIISummer16MiniAODv2-PUMoriond17_80X_mcRun2_asymptotic_2016_TrancheIV_v6-v1/MINIAODSIM",
        "maxlumis": -1,
        "mem_cfg": "cfg_noME.py",
        "perjob": 60,
        "runtime": 40,
        "script": "heppy_crab_script.sh",
        "isNANOAOD" : False
    },
    "QCD1000_ext1": {
        "ds": "/QCD_HT1000to1500_TuneCUETP8M1_13TeV-madgraphMLM-pythia8/RunIISummer16MiniAODv2-PUMoriond17_80X_mcRun2_asymptotic_2016_TrancheIV_v6_ext1-v1/MINIAODSIM",
        "maxlumis": -1,
        "mem_cfg": "cfg_noME.py",
        "perjob": 60,
        "runtime": 40,
        "script": "heppy_crab_script.sh",
        "isNANOAOD" : False
    },
    "QCD1500": {
        "ds": "/QCD_HT1500to2000_TuneCUETP8M1_13TeV-madgraphMLM-pythia8/RunIISummer16MiniAODv2-PUMoriond17_80X_mcRun2_asymptotic_2016_TrancheIV_v6-v1/MINIAODSIM",
        "maxlumis": -1,
        "mem_cfg": "cfg_noME.py",
        "perjob": 50,
        "runtime": 40,
        "script": "heppy_crab_script.sh",
        "isNANOAOD" : False
    },
    "QCD2000": {
        "ds": "/QCD_HT2000toInf_TuneCUETP8M1_13TeV-madgraphMLM-pythia8/RunIISummer16MiniAODv2-PUMoriond17_80X_mcRun2_asymptotic_2016_TrancheIV_v6-v1/MINIAODSIM",
        "maxlumis": -1,
        "mem_cfg": "cfg_noME.py",
        "perjob": 60,
        "runtime": 40,
        "script": "heppy_crab_script.sh",
        "isNANOAOD" : False
    },
    "QCD300": {
        "ds": "/QCD_HT300to500_TuneCUETP8M1_13TeV-madgraphMLM-pythia8/RunIISummer16MiniAODv2-PUMoriond17_80X_mcRun2_asymptotic_2016_TrancheIV_v6-v1/MINIAODSIM",
        "maxlumis": -1,
        "mem_cfg": "cfg_noME.py",
        "perjob": 200,
        "runtime": 40,
        "script": "heppy_crab_script.sh",
        "isNANOAOD" : False
    },
    "QCD300_ext1": {
        "ds": "/QCD_HT300to500_TuneCUETP8M1_13TeV-madgraphMLM-pythia8/RunIISummer16MiniAODv2-PUMoriond17_80X_mcRun2_asymptotic_2016_TrancheIV_v6_ext1-v1/MINIAODSIM",
        "maxlumis": -1,
        "mem_cfg": "cfg_noME.py",
        "perjob": 200,
        "runtime": 40,
        "script": "heppy_crab_script.sh",
        "isNANOAOD" : False
    },
    "QCD500": {
        "ds": "/QCD_HT500to700_TuneCUETP8M1_13TeV-madgraphMLM-pythia8/RunIISummer16MiniAODv2-PUMoriond17_80X_mcRun2_asymptotic_2016_TrancheIV_v6-v1/MINIAODSIM",
        "maxlumis": -1,
        "mem_cfg": "cfg_noME.py",
        "perjob": 150,
        "runtime": 40,
        "script": "heppy_crab_script.sh",
        "isNANOAOD" : False
    },
    "QCD500_ext1": {
        "ds": "/QCD_HT500to700_TuneCUETP8M1_13TeV-madgraphMLM-pythia8/RunIISummer16MiniAODv2-PUMoriond17_80X_mcRun2_asymptotic_2016_TrancheIV_v6_ext1-v2/MINIAODSIM",
        "maxlumis": -1,
        "mem_cfg": "cfg_noME.py",
        "perjob": 150,
        "runtime": 40,
        "script": "heppy_crab_script.sh",
        "isNANOAOD" : False
    },
    "QCD700": {
        "ds": "/QCD_HT700to1000_TuneCUETP8M1_13TeV-madgraphMLM-pythia8/RunIISummer16MiniAODv2-PUMoriond17_80X_mcRun2_asymptotic_2016_TrancheIV_v6-v1/MINIAODSIM",
        "maxlumis": -1,
        "mem_cfg": "cfg_noME.py",
        "perjob": 150,
        "runtime": 40,
        "script": "heppy_crab_script.sh",
        "isNANOAOD" : False
    },
    "QCD700_ext1": {
        "ds": "/QCD_HT700to1000_TuneCUETP8M1_13TeV-madgraphMLM-pythia8/RunIISummer16MiniAODv2-PUMoriond17_80X_mcRun2_asymptotic_2016_TrancheIV_v6_ext1-v1/MINIAODSIM",
        "maxlumis": -1,
        "mem_cfg": "cfg_noME.py",
        "perjob": 150,
        "runtime": 40,
        "script": "heppy_crab_script.sh",
        "isNANOAOD" : False
    },
    "QCDHT1000BGenFilter": {
        "ds": "/QCD_HT1000to1500_BGenFilter_TuneCUETP8M1_13TeV-madgraphMLM-pythia8/RunIISummer16MiniAODv2-PUMoriond17_80X_mcRun2_asymptotic_2016_TrancheIV_v6-v1/MINIAODSIM",
        "maxlumis": -1,
        "mem_cfg": "cfg_noME.py",
        "perjob": 80,
        "runtime": 40,
        "script": "heppy_crab_script.sh",
        "isNANOAOD" : False
    },
    "QCDHT1000bEnriched": {
        "ds": "/QCD_bEnriched_HT1000to1500_TuneCUETP8M1_13TeV-madgraphMLM-pythia8/RunIISummer16MiniAODv2-PUMoriond17_80X_mcRun2_asymptotic_2016_TrancheIV_v6-v1/MINIAODSIM",
        "maxlumis": -1,
        "mem_cfg": "cfg_noME.py",
        "perjob": 60,
        "runtime": 40,
        "script": "heppy_crab_script.sh",
        "isNANOAOD" : False
    },
    "QCDHT1500BGenFilter": {
        "ds": "/QCD_HT1500to2000_BGenFilter_TuneCUETP8M1_13TeV-madgraphMLM-pythia8/RunIISummer16MiniAODv2-PUMoriond17_80X_mcRun2_asymptotic_2016_TrancheIV_v6-v1/MINIAODSIM",
        "maxlumis": -1,
        "mem_cfg": "cfg_noME.py",
        "perjob": 50,
        "runtime": 40,
        "script": "heppy_crab_script.sh",
        "isNANOAOD" : False
    },
    "QCDHT1500bEnriched": {
        "ds": "/QCD_bEnriched_HT1500to2000_TuneCUETP8M1_13TeV-madgraphMLM-pythia8/RunIISummer16MiniAODv2-PUMoriond17_80X_mcRun2_asymptotic_2016_TrancheIV_v6-v1/MINIAODSIM",
        "maxlumis": -1,
        "mem_cfg": "cfg_noME.py",
        "perjob": 50,
        "runtime": 40,
        "script": "heppy_crab_script.sh",
        "isNANOAOD" : False
    },
    "QCDHT2000BGenFilter": {
        "ds": "/QCD_HT2000toInf_BGenFilter_TuneCUETP8M1_13TeV-madgraphMLM-pythia8/RunIISummer16MiniAODv2-PUMoriond17_80X_mcRun2_asymptotic_2016_TrancheIV_v6-v1/MINIAODSIM",
        "maxlumis": -1,
        "mem_cfg": "cfg_noME.py",
        "perjob": 50,
        "runtime": 40,
        "script": "heppy_crab_script.sh",
        "isNANOAOD" : False
    },
    "QCDHT2000bEnriched": {
        "ds": "/QCD_bEnriched_HT2000toInf_TuneCUETP8M1_13TeV-madgraphMLM-pythia8/RunIISummer16MiniAODv2-PUMoriond17_80X_mcRun2_asymptotic_2016_TrancheIV_v6-v1/MINIAODSIM",
        "maxlumis": -1,
        "mem_cfg": "cfg_noME.py",
        "perjob": 50,
        "runtime": 40,
        "script": "heppy_crab_script.sh",
        "isNANOAOD" : False
    },
    "QCDHT300BGenFilter": {
        "ds": "/QCD_HT300to500_BGenFilter_TuneCUETP8M1_13TeV-madgraphMLM-pythia8/RunIISummer16MiniAODv2-PUMoriond17_80X_mcRun2_asymptotic_2016_TrancheIV_v6-v1/MINIAODSIM",
        "maxlumis": -1,
        "mem_cfg": "cfg_noME.py",
        "perjob": 200,
        "runtime": 40,
        "script": "heppy_crab_script.sh",
        "isNANOAOD" : False
    },
    "QCDHT300bEnriched": {
        "ds": "/QCD_bEnriched_HT300to500_TuneCUETP8M1_13TeV-madgraphMLM-pythia8/RunIISummer16MiniAODv2-PUMoriond17_80X_mcRun2_asymptotic_2016_TrancheIV_v6-v1/MINIAODSIM",
        "maxlumis": -1,
        "mem_cfg": "cfg_noME.py",
        "perjob": 200,
        "runtime": 40,
        "script": "heppy_crab_script.sh",
        "isNANOAOD" : False
    },
    "QCDHT500BGenFilter": {
        "ds": "/QCD_HT500to700_BGenFilter_TuneCUETP8M1_13TeV-madgraphMLM-pythia8/RunIISummer16MiniAODv2-PUMoriond17_80X_mcRun2_asymptotic_2016_TrancheIV_v6-v1/MINIAODSIM",
        "maxlumis": -1,
        "mem_cfg": "cfg_noME.py",
        "perjob": 200,
        "runtime": 40,
        "script": "heppy_crab_script.sh",
        "isNANOAOD" : False
    },
    "QCDHT500bEnriched": {
        "ds": "/QCD_bEnriched_HT500to700_TuneCUETP8M1_13TeV-madgraphMLM-pythia8/RunIISummer16MiniAODv2-PUMoriond17_80X_mcRun2_asymptotic_2016_TrancheIV_v6-v1/MINIAODSIM",
        "maxlumis": -1,
        "mem_cfg": "cfg_noME.py",
        "perjob": 200,
        "runtime": 40,
        "script": "heppy_crab_script.sh",
        "isNANOAOD" : False
    },
    "QCDHT700BGenFilter": {
        "ds": "/QCD_HT700to1000_BGenFilter_TuneCUETP8M1_13TeV-madgraphMLM-pythia8/RunIISummer16MiniAODv2-PUMoriond17_80X_mcRun2_asymptotic_2016_TrancheIV_v6-v1/MINIAODSIM",
        "maxlumis": -1,
        "mem_cfg": "cfg_noME.py",
        "perjob": 100,
        "runtime": 40,
        "script": "heppy_crab_script.sh",
        "isNANOAOD" : False
    },
    "QCDHT700bEnriched": {
        "ds": "/QCD_bEnriched_HT700to1000_TuneCUETP8M1_13TeV-madgraphMLM-pythia8/RunIISummer16MiniAODv2-PUMoriond17_80X_mcRun2_asymptotic_2016_TrancheIV_v6-v1/MINIAODSIM",
        "maxlumis": -1,
        "mem_cfg": "cfg_noME.py",
        "perjob": 100,
        "runtime": 40,
        "script": "heppy_crab_script.sh",
        "isNANOAOD" : False
    }
}
